…
IPUMS data can now be read directly into **R** using the fabulous [`ipumsr` package](https://github.com/mnpopcenter/ipumsr). The primary functions simply need the "ddi" file describing the data structure. It is presumed here that the data themselves reside in the same directory. (They are not included in this repository because of their very large size).

``` r
library (ipumsr)
dat <- read_ipums_micro_list (ddi = "./data/mtus_00001.xml",
                              vars = c ("COUNTRY", "YEAR", "AGE", "SEX",
                                        "TIME", "MAIN", "MTRAV"))
#> Use of data from MTUS-X is subject to conditions including that users should
#> cite the data appropriately. Use command `ipums_conditions()` for more details.
#> 
#> Reading data...
#> Parsing data...
dat
#> $PERSON
#> # A tibble: 419,686 x 5
#>    RECTYPE   COUNTRY    YEAR   AGE SEX      
#>    <dbl+lbl> <chr+lbl> <int> <dbl> <int+lbl>
#>  1 2         AT         1992   41. 1        
#>  2 2         AT         1992   40. 2        
#>  3 2         AT         1992   70. 1        
#>  4 2         AT         1992   68. 2        
#>  5 2         AT         1992   78. 1        
#>  6 2         AT         1992   71. 2        
#>  7 2         AT         1992   74. 1        
#>  8 2         AT         1992   73. 2        
#>  9 2         AT         1992   58. 2        
#> 10 2         AT         1992   29. 2        
#> # ... with 419,676 more rows
#> 
#> $ACTIVITY
#> # A tibble: 9,224,050 x 6
#>    RECTYPE   COUNTRY    YEAR  TIME MAIN      MTRAV    
#>    <dbl+lbl> <chr+lbl> <int> <dbl> <int+lbl> <int+lbl>
#>  1 3         AT         1992  390. 2         -7       
#>  2 3         AT         1992   15. 4         -7       
#>  3 3         AT         1992   15. 66        1        
#>  4 3         AT         1992   15. 6         -7       
#>  5 3         AT         1992   15. 6         -7       
#>  6 3         AT         1992   45. 6         -7       
#>  7 3         AT         1992   30. 19        -7       
#>  8 3         AT         1992   15. 25        5        
#>  9 3         AT         1992   30. 24        -7       
#> 10 3         AT         1992   15. 21        5        
#> # ... with 9,224,040 more rows
```

Note that the `dat$ACTIVITY$TIME` variable quantifies the duration of a travel activity, and is the key variable we will be analysing here. These data include over 9 million activities from nearly 500,000 individuals from these countries:

``` r
countries <- unique (dat$PERSON$COUNTRY)
countries
#> [1] "AT" "CA" "FI" "FR" "NL" "ES" "UK" "US"
```

The two tables represent the hierarchical structure of the data. These data can then be filtered down to only those records in which people walked, rode bicycles, or used cars. We will only use the `ACTIVITY` table here.

``` r
act <- dplyr::filter (dat$ACTIVITY, MTRAV > 0 | MAIN %in% c (43:44, 63:68))
act
#> # A tibble: 1,475,679 x 6
#>    RECTYPE   COUNTRY    YEAR  TIME MAIN      MTRAV    
#>    <dbl+lbl> <chr+lbl> <int> <dbl> <int+lbl> <int+lbl>
#>  1 3         AT         1992   15. 66        1        
#>  2 3         AT         1992   15. 25        5        
#>  3 3         AT         1992   15. 21        5        
#>  4 3         AT         1992   15. 23        5        
#>  5 3         AT         1992  135. 59        5        
#>  6 3         AT         1992   15. 4         5        
#>  7 3         AT         1992   30. 68        1        
#>  8 3         AT         1992   15. 63        1        
#>  9 3         AT         1992   15. 63        3        
#> 10 3         AT         1992   15. 63        5        
#> # ... with 1,475,669 more rows
```
…
